Tomcat 9.0.27
 - deploy at the servet startup   vmart.war
 - Application context - "/"
 - url - http://localhost:8080/taskBook
       - http://localhost:8080 


For work App must be start h2, path - yourPath..\H2\bin\h2.bat

H2 DataBase 1.4.199

url    -  "jdbc:h2:tcp://localhost/~/test"
login  -  "sa"
password - ""




<h2.version>			1.4.199
<jsp-api.version>		2.0
<tomcat-embed-core.version>	8.5.42
<maven-war-plugin.version>	2.6
<tomcat7-maven-plugin.version>	2.2



